{
  "artifactGenerations" : [ ],
  "artifactId" : "my-project",
  "groupId" : "org.finos.legend",
  "metamodelDependencies" : [ ],
  "projectDependencies" : [ ],
  "projectId" : "SAMPLE-39666975",
  "projectStructureVersion" : {
    "extensionVersion" : 2,
    "version" : 12
  },
  "projectType" : null
}